2016-09-02 18:03:10,302 [1] INFO  SharedPluginServer.Program [(null)] - ===============START================
2016-09-02 18:03:10,437 [1] INFO  SharedPluginServer.Program [(null)] - ARGS:
2017-02-27 17:15:56,645 [1] INFO  SharedPluginServer.Program [(null)] - ===============START================
2017-02-27 17:15:56,743 [1] INFO  SharedPluginServer.Program [(null)] - Starting plugin, settings:width:500,height:500,url:http://www.google.com,memfile:48184c0b-8d2c-4074-bc0b-1011dae9f8a3,port:8315
2017-02-27 17:16:05,327 [7] INFO  SharedPluginServer.App [(null)] - ==============SHUTTING DOWN==========
2017-02-27 17:16:07,998 [1] INFO  SharedPluginServer.Program [(null)] - ===============START================
2017-02-27 17:16:08,062 [1] INFO  SharedPluginServer.Program [(null)] - Starting plugin, settings:width:500,height:500,url:http://www.google.com,memfile:9bb0b443-e767-4514-a92c-de677ad8941e,port:8135
2017-02-27 17:16:11,097 [7] INFO  SharedPluginServer.App [(null)] - ==============SHUTTING DOWN==========
2017-02-27 18:24:29,979 [1] INFO  SharedPluginServer.Program [(null)] - ===============START================
2017-02-27 18:24:30,046 [1] INFO  SharedPluginServer.Program [(null)] - Starting plugin, settings:width:500,height:500,url:http://www.google.com,memfile:0fdef6cd-1bda-4815-84fa-aabf5c41bc1b,port:8008
2017-02-27 18:24:35,168 [1] ERROR SharedPluginServer.Program [(null)] - CefRuntime return 0
2017-02-27 18:24:35,803 [1] INFO  SharedPluginServer.Program [(null)] - ===============START================
2017-02-27 18:24:35,863 [1] INFO  SharedPluginServer.Program [(null)] - Starting plugin, settings:width:500,height:500,url:http://www.google.com,memfile:0fdef6cd-1bda-4815-84fa-aabf5c41bc1b,port:8008
2017-02-27 18:24:40,837 [7] INFO  SharedPluginServer.App [(null)] - ==============SHUTTING DOWN==========
2017-02-27 18:24:55,005 [1] INFO  SharedPluginServer.Program [(null)] - ===============START================
2017-02-27 18:24:55,072 [1] INFO  SharedPluginServer.Program [(null)] - Starting plugin, settings:width:500,height:500,url:http://www.google.com,memfile:e3e562f6-4ddb-424d-b290-4f2f7fb63fb8,port:8426
2017-02-27 18:25:06,324 [9] INFO  SharedPluginServer.App [(null)] - ==============SHUTTING DOWN==========
2019-06-21 10:55:21,165 [1] INFO  SharedPluginServer.Program [(null)] - ===============START================
2019-06-21 10:55:21,337 [1] INFO  SharedPluginServer.Program [(null)] - Starting plugin, settings:width:1024,height:768,url:http://www.google.com,memfile:9e300f06-9667-4d26-908f-e7fb7bd360f3,port:8411
2019-06-21 10:55:30,842 [3] INFO  SharedPluginServer.App [(null)] - ==============SHUTTING DOWN==========
2019-06-21 10:55:35,285 [1] INFO  SharedPluginServer.Program [(null)] - ===============START================
2019-06-21 10:55:35,329 [1] INFO  SharedPluginServer.Program [(null)] - Starting plugin, settings:width:500,height:500,url:http://www.google.com,memfile:20f046ec-9e71-4b41-a18f-24313e1b4aaf,port:8184
2019-06-21 10:57:25,065 [3] INFO  SharedPluginServer.App [(null)] - ==============SHUTTING DOWN==========
2019-06-21 10:57:34,893 [1] INFO  SharedPluginServer.Program [(null)] - ===============START================
2019-06-21 10:57:34,939 [1] INFO  SharedPluginServer.Program [(null)] - Starting plugin, settings:width:1024,height:768,url:http://www.google.com,memfile:04ba6f91-cec2-48a5-a5fe-9acf20c3ca54,port:8953
2019-06-21 10:57:37,543 [3] INFO  SharedPluginServer.App [(null)] - ==============SHUTTING DOWN==========
2019-06-21 10:58:05,603 [1] INFO  SharedPluginServer.Program [(null)] - ===============START================
2019-06-21 10:58:05,649 [1] INFO  SharedPluginServer.Program [(null)] - Starting plugin, settings:width:1024,height:768,url:http://www.google.com,memfile:a18cf560-838f-4140-a516-6da705927c89,port:8173
2019-06-21 10:58:36,308 [9] INFO  SharedPluginServer.App [(null)] - ==============SHUTTING DOWN==========
2019-06-21 11:01:18,144 [1] INFO  SharedPluginServer.Program [(null)] - ===============START================
2019-06-21 11:01:18,189 [1] INFO  SharedPluginServer.Program [(null)] - Starting plugin, settings:width:1024,height:768,url:https://blockly-demo.appspot.com/static/demos/code/index.htmlhttp://www.google.com,memfile:ec5ad6c7-196d-4e54-99f7-e889f4a50b15,port:8405
2019-06-21 11:01:22,901 [3] INFO  SharedPluginServer.App [(null)] - ==============SHUTTING DOWN==========
2019-06-21 11:01:31,108 [1] INFO  SharedPluginServer.Program [(null)] - ===============START================
2019-06-21 11:01:31,155 [1] INFO  SharedPluginServer.Program [(null)] - Starting plugin, settings:width:1024,height:768,url:https://blockly-demo.appspot.com/static/demos/code/index.html,memfile:57f857d2-f406-4a00-9afd-0532e3ccfcba,port:8739
2019-06-21 11:01:37,196 [7] INFO  SharedPluginServer.App [(null)] - ==============SHUTTING DOWN==========
2019-06-21 11:02:02,646 [1] INFO  SharedPluginServer.Program [(null)] - ===============START================
2019-06-21 11:02:02,692 [1] INFO  SharedPluginServer.Program [(null)] - Starting plugin, settings:width:1024,height:768,url:https://blockly-demo.appspot.com/static/demos/code/index.html,memfile:bb1c1dcf-2465-406c-b456-bd1a292d7d42,port:8690
2019-06-21 11:22:09,985 [12] INFO  SharedPluginServer.App [(null)] - ==============SHUTTING DOWN==========
2019-06-21 11:22:54,351 [1] INFO  SharedPluginServer.Program [(null)] - ===============START================
2019-06-21 11:22:54,396 [1] INFO  SharedPluginServer.Program [(null)] - Starting plugin, settings:width:1024,height:768,url:https://blockly-demo.appspot.com/static/demos/code/index.html,memfile:9638a350-083b-4c3e-ae35-79eb7a1320c4,port:8664
2019-06-21 11:23:05,233 [7] INFO  SharedPluginServer.App [(null)] - ==============SHUTTING DOWN==========
2019-06-21 11:25:30,022 [1] INFO  SharedPluginServer.Program [(null)] - ===============START================
2019-06-21 11:25:30,068 [1] INFO  SharedPluginServer.Program [(null)] - Starting plugin, settings:width:1280,height:720,url:https://blockly-demo.appspot.com/static/demos/code/index.html,memfile:c24ddb8b-fb9c-4078-9340-706706b935cf,port:8017
2019-06-21 11:25:36,964 [1] ERROR SharedPluginServer.Program [(null)] - CefRuntime return 0
2019-06-21 11:25:38,112 [1] INFO  SharedPluginServer.Program [(null)] - ===============START================
2019-06-21 11:25:38,162 [1] INFO  SharedPluginServer.Program [(null)] - Starting plugin, settings:width:1280,height:720,url:https://blockly-demo.appspot.com/static/demos/code/index.html,memfile:c24ddb8b-fb9c-4078-9340-706706b935cf,port:8017
2019-06-21 11:25:42,151 [1] INFO  SharedPluginServer.Program [(null)] - ===============START================
2019-06-21 11:25:42,199 [1] INFO  SharedPluginServer.Program [(null)] - Starting plugin, settings:width:1280,height:720,url:https://blockly-demo.appspot.com/static/demos/code/index.html,memfile:c24ddb8b-fb9c-4078-9340-706706b935cf,port:8017
2019-06-21 11:25:46,186 [1] INFO  SharedPluginServer.Program [(null)] - ===============START================
2019-06-21 11:25:46,232 [1] INFO  SharedPluginServer.Program [(null)] - Starting plugin, settings:width:1280,height:720,url:https://blockly-demo.appspot.com/static/demos/code/index.html,memfile:c24ddb8b-fb9c-4078-9340-706706b935cf,port:8017
2019-06-21 11:25:50,221 [1] INFO  SharedPluginServer.Program [(null)] - ===============START================
2019-06-21 11:25:50,273 [1] INFO  SharedPluginServer.Program [(null)] - Starting plugin, settings:width:1280,height:720,url:https://blockly-demo.appspot.com/static/demos/code/index.html,memfile:c24ddb8b-fb9c-4078-9340-706706b935cf,port:8017
2019-06-21 11:25:54,628 [1] INFO  SharedPluginServer.Program [(null)] - ===============START================
2019-06-21 11:25:54,686 [1] INFO  SharedPluginServer.Program [(null)] - Starting plugin, settings:width:1280,height:720,url:http://test.webrtc.org,memfile:MainSharedMem,port:8885
2019-06-21 11:25:58,617 [1] ERROR SharedPluginServer.Program [(null)] - CefRuntime return 0
2019-06-21 11:25:58,635 [1] INFO  SharedPluginServer.Program [(null)] - ===============START================
2019-06-21 11:25:58,688 [1] INFO  SharedPluginServer.Program [(null)] - Starting plugin, settings:width:1280,height:720,url:http://test.webrtc.org,memfile:MainSharedMem,port:8885
2019-06-21 11:26:00,303 [1] ERROR SharedPluginServer.Program [(null)] - CefRuntime return 0
2019-06-21 11:26:00,340 [1] INFO  SharedPluginServer.Program [(null)] - ===============START================
2019-06-21 11:26:00,386 [1] INFO  SharedPluginServer.Program [(null)] - Starting plugin, settings:width:1280,height:720,url:https://blockly-demo.appspot.com/static/demos/code/index.html,memfile:c24ddb8b-fb9c-4078-9340-706706b935cf,port:8017
2019-06-21 11:26:04,383 [1] INFO  SharedPluginServer.Program [(null)] - ===============START================
2019-06-21 11:26:04,429 [1] INFO  SharedPluginServer.Program [(null)] - Starting plugin, settings:width:1280,height:720,url:https://blockly-demo.appspot.com/static/demos/code/index.html,memfile:c24ddb8b-fb9c-4078-9340-706706b935cf,port:8017
2019-06-21 11:26:08,684 [1] ERROR SharedPluginServer.Program [(null)] - CefRuntime return 0
2019-06-21 11:26:08,802 [1] INFO  SharedPluginServer.Program [(null)] - ===============START================
2019-06-21 11:26:08,851 [1] INFO  SharedPluginServer.Program [(null)] - Starting plugin, settings:width:1280,height:720,url:http://test.webrtc.org,memfile:MainSharedMem,port:8885
2019-06-21 11:26:10,683 [1] ERROR SharedPluginServer.Program [(null)] - CefRuntime return 0
2019-06-21 11:26:10,808 [1] INFO  SharedPluginServer.Program [(null)] - ===============START================
2019-06-21 11:26:10,864 [1] INFO  SharedPluginServer.Program [(null)] - Starting plugin, settings:width:1280,height:720,url:http://test.webrtc.org,memfile:MainSharedMem,port:8885
2019-06-21 11:26:20,935 [1] ERROR SharedPluginServer.Program [(null)] - CefRuntime return 0
2019-06-21 11:26:21,062 [1] ERROR SharedPluginServer.Program [(null)] - CefRuntime return 0
2019-06-21 11:26:22,567 [1] INFO  SharedPluginServer.Program [(null)] - ===============START================
2019-06-21 11:26:22,613 [1] INFO  SharedPluginServer.Program [(null)] - Starting plugin, settings:width:1280,height:720,url:https://blockly-demo.appspot.com/static/demos/code/index.html,memfile:c24ddb8b-fb9c-4078-9340-706706b935cf,port:8017
2019-06-21 11:26:26,885 [1] ERROR SharedPluginServer.Program [(null)] - CefRuntime return 0
2019-06-21 11:26:26,977 [1] INFO  SharedPluginServer.Program [(null)] - ===============START================
2019-06-21 11:26:27,027 [1] INFO  SharedPluginServer.Program [(null)] - Starting plugin, settings:width:1280,height:720,url:http://test.webrtc.org,memfile:MainSharedMem,port:8885
2019-06-21 11:26:28,860 [1] ERROR SharedPluginServer.Program [(null)] - CefRuntime return 0
2019-06-21 11:26:28,914 [1] INFO  SharedPluginServer.Program [(null)] - ===============START================
2019-06-21 11:26:28,961 [1] INFO  SharedPluginServer.Program [(null)] - Starting plugin, settings:width:1280,height:720,url:http://test.webrtc.org,memfile:MainSharedMem,port:8885
2019-06-21 11:26:32,766 [1] ERROR SharedPluginServer.Program [(null)] - CefRuntime return 0
2019-06-21 11:26:32,878 [1] ERROR SharedPluginServer.Program [(null)] - CefRuntime return 0
2019-06-21 11:26:32,960 [1] INFO  SharedPluginServer.Program [(null)] - ===============START================
2019-06-21 11:26:33,004 [1] INFO  SharedPluginServer.Program [(null)] - Starting plugin, settings:width:1280,height:720,url:http://test.webrtc.org,memfile:MainSharedMem,port:8885
2019-06-21 11:26:42,789 [1] ERROR SharedPluginServer.Program [(null)] - CefRuntime return 0
2019-06-21 11:26:42,792 [1] INFO  SharedPluginServer.Program [(null)] - ===============START================
2019-06-21 11:26:42,841 [1] INFO  SharedPluginServer.Program [(null)] - Starting plugin, settings:width:1280,height:720,url:https://blockly-demo.appspot.com/static/demos/code/index.html,memfile:c24ddb8b-fb9c-4078-9340-706706b935cf,port:8017
2019-06-21 11:26:45,083 [1] INFO  SharedPluginServer.Program [(null)] - ===============START================
2019-06-21 11:26:45,126 [1] INFO  SharedPluginServer.Program [(null)] - Starting plugin, settings:width:1280,height:720,url:http://test.webrtc.org,memfile:MainSharedMem,port:8885
2019-06-21 11:26:48,930 [1] ERROR SharedPluginServer.Program [(null)] - CefRuntime return 0
2019-06-21 11:26:49,130 [1] INFO  SharedPluginServer.Program [(null)] - ===============START================
2019-06-21 11:26:49,174 [1] INFO  SharedPluginServer.Program [(null)] - Starting plugin, settings:width:1280,height:720,url:http://test.webrtc.org,memfile:MainSharedMem,port:8885
2019-06-21 11:26:58,984 [1] ERROR SharedPluginServer.Program [(null)] - CefRuntime return 0
2019-06-21 11:26:59,284 [1] INFO  SharedPluginServer.Program [(null)] - ===============START================
2019-06-21 11:26:59,329 [1] INFO  SharedPluginServer.Program [(null)] - Starting plugin, settings:width:1280,height:720,url:http://test.webrtc.org,memfile:MainSharedMem,port:8885
2019-06-21 11:27:01,182 [1] ERROR SharedPluginServer.Program [(null)] - CefRuntime return 0
2019-06-21 11:27:01,244 [1] INFO  SharedPluginServer.Program [(null)] - ===============START================
2019-06-21 11:27:01,288 [1] INFO  SharedPluginServer.Program [(null)] - Starting plugin, settings:width:1280,height:720,url:http://test.webrtc.org,memfile:MainSharedMem,port:8885
2019-06-21 11:27:11,044 [1] ERROR SharedPluginServer.Program [(null)] - CefRuntime return 0
2019-06-21 11:27:11,066 [1] INFO  SharedPluginServer.Program [(null)] - ===============START================
2019-06-21 11:27:11,115 [1] INFO  SharedPluginServer.Program [(null)] - Starting plugin, settings:width:1280,height:720,url:https://blockly-demo.appspot.com/static/demos/code/index.html,memfile:c24ddb8b-fb9c-4078-9340-706706b935cf,port:8017
2019-06-21 11:27:13,426 [1] ERROR SharedPluginServer.Program [(null)] - CefRuntime return 0
2019-06-21 11:27:15,100 [1] INFO  SharedPluginServer.Program [(null)] - ===============START================
2019-06-21 11:27:15,151 [1] INFO  SharedPluginServer.Program [(null)] - Starting plugin, settings:width:1280,height:720,url:https://blockly-demo.appspot.com/static/demos/code/index.html,memfile:c24ddb8b-fb9c-4078-9340-706706b935cf,port:8017
2019-06-21 11:27:17,500 [1] ERROR SharedPluginServer.Program [(null)] - CefRuntime return 0
2019-06-21 11:27:19,117 [1] INFO  SharedPluginServer.Program [(null)] - ===============START================
2019-06-21 11:27:19,162 [1] INFO  SharedPluginServer.Program [(null)] - Starting plugin, settings:width:1280,height:720,url:https://blockly-demo.appspot.com/static/demos/code/index.html,memfile:c24ddb8b-fb9c-4078-9340-706706b935cf,port:8017
2019-06-21 11:27:23,819 [1] ERROR SharedPluginServer.Program [(null)] - CefRuntime return 0
2019-06-21 11:27:25,171 [1] INFO  SharedPluginServer.Program [(null)] - ===============START================
2019-06-21 11:27:25,216 [1] INFO  SharedPluginServer.Program [(null)] - Starting plugin, settings:width:1280,height:720,url:https://blockly-demo.appspot.com/static/demos/code/index.html,memfile:c24ddb8b-fb9c-4078-9340-706706b935cf,port:8017
2019-06-21 11:27:29,468 [1] ERROR SharedPluginServer.Program [(null)] - CefRuntime return 0
2019-06-21 11:27:29,541 [1] INFO  SharedPluginServer.Program [(null)] - ===============START================
2019-06-21 11:27:29,588 [1] INFO  SharedPluginServer.Program [(null)] - Starting plugin, settings:width:1280,height:720,url:http://test.webrtc.org,memfile:MainSharedMem,port:8885
2019-06-21 11:27:31,563 [1] ERROR SharedPluginServer.Program [(null)] - CefRuntime return 0
2019-06-21 11:27:33,261 [1] INFO  SharedPluginServer.Program [(null)] - ===============START================
2019-06-21 11:27:33,307 [1] INFO  SharedPluginServer.Program [(null)] - Starting plugin, settings:width:1280,height:720,url:https://blockly-demo.appspot.com/static/demos/code/index.html,memfile:c24ddb8b-fb9c-4078-9340-706706b935cf,port:8017
2019-06-21 11:27:35,672 [1] ERROR SharedPluginServer.Program [(null)] - CefRuntime return 0
2019-06-21 11:27:37,285 [1] INFO  SharedPluginServer.Program [(null)] - ===============START================
2019-06-21 11:27:37,330 [1] INFO  SharedPluginServer.Program [(null)] - Starting plugin, settings:width:1280,height:720,url:https://blockly-demo.appspot.com/static/demos/code/index.html,memfile:c24ddb8b-fb9c-4078-9340-706706b935cf,port:8017
2019-06-21 11:27:41,647 [1] INFO  SharedPluginServer.Program [(null)] - ===============START================
2019-06-21 11:27:41,703 [1] INFO  SharedPluginServer.Program [(null)] - Starting plugin, settings:width:1280,height:720,url:http://test.webrtc.org,memfile:MainSharedMem,port:8885
2019-06-21 11:27:43,655 [1] ERROR SharedPluginServer.Program [(null)] - CefRuntime return 0
2019-06-21 11:27:45,353 [1] INFO  SharedPluginServer.Program [(null)] - ===============START================
2019-06-21 11:27:45,399 [1] INFO  SharedPluginServer.Program [(null)] - Starting plugin, settings:width:1280,height:720,url:https://blockly-demo.appspot.com/static/demos/code/index.html,memfile:c24ddb8b-fb9c-4078-9340-706706b935cf,port:8017
2019-06-21 11:27:47,642 [1] ERROR SharedPluginServer.Program [(null)] - CefRuntime return 0
2019-06-21 11:27:47,669 [1] INFO  SharedPluginServer.Program [(null)] - ===============START================
2019-06-21 11:27:47,717 [1] INFO  SharedPluginServer.Program [(null)] - Starting plugin, settings:width:1280,height:720,url:http://test.webrtc.org,memfile:MainSharedMem,port:8885
2019-06-21 11:27:51,582 [1] ERROR SharedPluginServer.Program [(null)] - CefRuntime return 0
2019-06-21 11:27:51,717 [1] ERROR SharedPluginServer.Program [(null)] - CefRuntime return 0
2019-06-21 11:27:51,745 [1] INFO  SharedPluginServer.Program [(null)] - ===============START================
2019-06-21 11:27:51,794 [1] INFO  SharedPluginServer.Program [(null)] - Starting plugin, settings:width:1280,height:720,url:http://test.webrtc.org,memfile:MainSharedMem,port:8885
2019-06-21 11:27:53,759 [1] ERROR SharedPluginServer.Program [(null)] - CefRuntime return 0
2019-06-21 11:27:53,767 [1] INFO  SharedPluginServer.Program [(null)] - Starting plugin, settings:width:1280,height:720,url:http://test.webrtc.org,memfile:MainSharedMem,port:8885
2019-06-21 11:28:03,582 [1] ERROR SharedPluginServer.Program [(null)] - CefRuntime return 0
2019-06-21 11:28:03,800 [1] INFO  SharedPluginServer.Program [(null)] - ===============START================
2019-06-21 11:28:03,845 [1] INFO  SharedPluginServer.Program [(null)] - Starting plugin, settings:width:1280,height:720,url:http://test.webrtc.org,memfile:MainSharedMem,port:8885
2019-06-21 11:28:07,579 [1] ERROR SharedPluginServer.Program [(null)] - CefRuntime return 0
2019-06-21 11:28:07,609 [1] INFO  SharedPluginServer.Program [(null)] - ===============START================
2019-06-21 11:28:07,664 [1] INFO  SharedPluginServer.Program [(null)] - Starting plugin, settings:width:1280,height:720,url:https://blockly-demo.appspot.com/static/demos/code/index.html,memfile:c24ddb8b-fb9c-4078-9340-706706b935cf,port:8017
2019-06-21 11:28:11,943 [1] ERROR SharedPluginServer.Program [(null)] - CefRuntime return 0
2019-06-21 11:28:13,624 [1] INFO  SharedPluginServer.Program [(null)] - ===============START================
2019-06-21 11:28:13,670 [1] INFO  SharedPluginServer.Program [(null)] - Starting plugin, settings:width:1280,height:720,url:https://blockly-demo.appspot.com/static/demos/code/index.html,memfile:c24ddb8b-fb9c-4078-9340-706706b935cf,port:8017
2019-06-21 11:28:17,658 [1] ERROR SharedPluginServer.Program [(null)] - CefRuntime return 0
2019-06-21 11:28:17,708 [1] INFO  SharedPluginServer.Program [(null)] - Starting plugin, settings:width:1280,height:720,url:https://blockly-demo.appspot.com/static/demos/code/index.html,memfile:c24ddb8b-fb9c-4078-9340-706706b935cf,port:8017
2019-06-21 11:28:21,745 [1] ERROR SharedPluginServer.Program [(null)] - CefRuntime return 0
2019-06-21 11:28:21,787 [1] ERROR SharedPluginServer.Program [(null)] - CefRuntime return 0
2019-06-21 11:28:22,039 [1] INFO  SharedPluginServer.Program [(null)] - ===============START================
2019-06-21 11:28:22,083 [1] INFO  SharedPluginServer.Program [(null)] - Starting plugin, settings:width:1280,height:720,url:http://test.webrtc.org,memfile:MainSharedMem,port:8885
2019-06-21 11:28:31,704 [1] ERROR SharedPluginServer.Program [(null)] - CefRuntime return 0
2019-06-21 11:28:31,810 [1] INFO  SharedPluginServer.Program [(null)] - ===============START================
2019-06-21 11:28:31,856 [1] INFO  SharedPluginServer.Program [(null)] - Starting plugin, settings:width:1280,height:720,url:https://blockly-demo.appspot.com/static/demos/code/index.html,memfile:c24ddb8b-fb9c-4078-9340-706706b935cf,port:8017
2019-06-21 11:28:33,943 [1] ERROR SharedPluginServer.Program [(null)] - CefRuntime return 0
2019-06-21 11:28:34,108 [1] INFO  SharedPluginServer.Program [(null)] - ===============START================
2019-06-21 11:28:34,152 [1] INFO  SharedPluginServer.Program [(null)] - Starting plugin, settings:width:1280,height:720,url:http://test.webrtc.org,memfile:MainSharedMem,port:8885
2019-06-21 11:28:43,784 [1] ERROR SharedPluginServer.Program [(null)] - CefRuntime return 0
2019-06-21 11:28:43,944 [1] INFO  SharedPluginServer.Program [(null)] - ===============START================
2019-06-21 11:28:43,994 [1] INFO  SharedPluginServer.Program [(null)] - Starting plugin, settings:width:1280,height:720,url:https://blockly-demo.appspot.com/static/demos/code/index.html,memfile:c24ddb8b-fb9c-4078-9340-706706b935cf,port:8017
2019-06-21 11:28:45,999 [1] ERROR SharedPluginServer.Program [(null)] - CefRuntime return 0
2019-06-21 11:28:46,221 [1] INFO  SharedPluginServer.Program [(null)] - ===============START================
2019-06-21 11:28:46,265 [1] INFO  SharedPluginServer.Program [(null)] - Starting plugin, settings:width:1280,height:720,url:http://test.webrtc.org,memfile:MainSharedMem,port:8885
2019-06-21 11:28:50,112 [1] ERROR SharedPluginServer.Program [(null)] - CefRuntime return 0
2019-06-21 11:28:50,122 [1] ERROR SharedPluginServer.Program [(null)] - CefRuntime return 0
2019-06-21 11:28:50,286 [1] INFO  SharedPluginServer.Program [(null)] - ===============START================
2019-06-21 11:28:50,329 [1] INFO  SharedPluginServer.Program [(null)] - Starting plugin, settings:width:1280,height:720,url:http://test.webrtc.org,memfile:MainSharedMem,port:8885
2019-06-21 11:28:59,946 [1] ERROR SharedPluginServer.Program [(null)] - CefRuntime return 0
2019-06-21 11:29:00,104 [1] INFO  SharedPluginServer.Program [(null)] - ===============START================
2019-06-21 11:29:00,149 [1] INFO  SharedPluginServer.Program [(null)] - Starting plugin, settings:width:1280,height:720,url:https://blockly-demo.appspot.com/static/demos/code/index.html,memfile:c24ddb8b-fb9c-4078-9340-706706b935cf,port:8017
2019-06-21 11:29:02,129 [1] ERROR SharedPluginServer.Program [(null)] - CefRuntime return 0
2019-06-21 11:29:02,370 [1] INFO  SharedPluginServer.Program [(null)] - ===============START================
2019-06-21 11:29:02,413 [1] INFO  SharedPluginServer.Program [(null)] - Starting plugin, settings:width:1280,height:720,url:http://test.webrtc.org,memfile:MainSharedMem,port:8885
2019-06-21 11:29:06,095 [1] ERROR SharedPluginServer.Program [(null)] - CefRuntime return 0
2019-06-21 11:29:06,168 [1] INFO  SharedPluginServer.Program [(null)] - ===============START================
2019-06-21 11:29:06,216 [1] INFO  SharedPluginServer.Program [(null)] - Starting plugin, settings:width:1280,height:720,url:https://blockly-demo.appspot.com/static/demos/code/index.html,memfile:c24ddb8b-fb9c-4078-9340-706706b935cf,port:8017
2019-06-21 11:29:10,199 [1] INFO  SharedPluginServer.Program [(null)] - ===============START================
2019-06-21 11:29:10,252 [1] INFO  SharedPluginServer.Program [(null)] - Starting plugin, settings:width:1280,height:720,url:https://blockly-demo.appspot.com/static/demos/code/index.html,memfile:c24ddb8b-fb9c-4078-9340-706706b935cf,port:8017
2019-06-21 11:29:14,256 [1] INFO  SharedPluginServer.Program [(null)] - Starting plugin, settings:width:1280,height:720,url:https://blockly-demo.appspot.com/static/demos/code/index.html,memfile:c24ddb8b-fb9c-4078-9340-706706b935cf,port:8017
2019-06-21 11:29:18,527 [1] ERROR SharedPluginServer.Program [(null)] - CefRuntime return 0
2019-06-21 11:29:18,630 [1] INFO  SharedPluginServer.Program [(null)] - ===============START================
2019-06-21 11:29:18,677 [1] INFO  SharedPluginServer.Program [(null)] - Starting plugin, settings:width:1280,height:720,url:http://test.webrtc.org,memfile:MainSharedMem,port:8885
2019-06-21 11:29:23,129 [1] ERROR SharedPluginServer.Program [(null)] - CefRuntime return 0
2019-06-21 11:29:23,243 [1] ERROR SharedPluginServer.Program [(null)] - CefRuntime return 0
2019-06-21 11:29:24,377 [1] ERROR SharedPluginServer.Program [(null)] - CefRuntime return 0
2019-06-21 11:29:24,623 [1] INFO  SharedPluginServer.Program [(null)] - ===============START================
2019-06-21 11:29:24,743 [1] INFO  SharedPluginServer.Program [(null)] - Starting plugin, settings:width:1280,height:720,url:https://blockly-demo.appspot.com/static/demos/code/index.html,memfile:c24ddb8b-fb9c-4078-9340-706706b935cf,port:8017
2019-06-21 11:29:30,099 [1] ERROR SharedPluginServer.Program [(null)] - CefRuntime return 0
2019-06-21 11:29:30,271 [1] ERROR SharedPluginServer.Program [(null)] - CefRuntime return 0
2019-06-21 11:29:31,281 [1] INFO  SharedPluginServer.Program [(null)] - ===============START================
2019-06-21 11:29:31,334 [1] INFO  SharedPluginServer.Program [(null)] - Starting plugin, settings:width:1280,height:720,url:https://blockly-demo.appspot.com/static/demos/code/index.html,memfile:c24ddb8b-fb9c-4078-9340-706706b935cf,port:8017
2019-06-21 11:29:35,764 [1] ERROR SharedPluginServer.Program [(null)] - CefRuntime return 0
2019-06-21 11:29:35,895 [1] INFO  SharedPluginServer.Program [(null)] - ===============START================
2019-06-21 11:29:35,951 [1] INFO  SharedPluginServer.Program [(null)] - Starting plugin, settings:width:1280,height:720,url:https://blockly-demo.appspot.com/static/demos/code/index.html,memfile:c24ddb8b-fb9c-4078-9340-706706b935cf,port:8017
2019-06-21 11:29:40,106 [1] ERROR SharedPluginServer.Program [(null)] - CefRuntime return 0
2019-06-21 11:29:40,280 [1] INFO  SharedPluginServer.Program [(null)] - ===============START================
2019-06-21 11:29:40,326 [1] INFO  SharedPluginServer.Program [(null)] - Starting plugin, settings:width:1280,height:720,url:http://test.webrtc.org,memfile:MainSharedMem,port:8885
2019-06-21 11:29:42,089 [1] ERROR SharedPluginServer.Program [(null)] - CefRuntime return 0
2019-06-21 11:29:42,191 [1] INFO  SharedPluginServer.Program [(null)] - ===============START================
2019-06-21 11:29:42,238 [1] INFO  SharedPluginServer.Program [(null)] - Starting plugin, settings:width:1280,height:720,url:http://test.webrtc.org,memfile:MainSharedMem,port:8885
2019-06-21 11:29:51,941 [1] ERROR SharedPluginServer.Program [(null)] - CefRuntime return 0
2019-06-21 11:29:52,020 [1] INFO  SharedPluginServer.Program [(null)] - ===============START================
2019-06-21 11:29:52,065 [1] INFO  SharedPluginServer.Program [(null)] - Starting plugin, settings:width:1280,height:720,url:https://blockly-demo.appspot.com/static/demos/code/index.html,memfile:c24ddb8b-fb9c-4078-9340-706706b935cf,port:8017
2019-06-21 11:29:54,277 [1] ERROR SharedPluginServer.Program [(null)] - CefRuntime return 0
2019-06-21 11:29:54,335 [1] INFO  SharedPluginServer.Program [(null)] - ===============START================
2019-06-21 11:29:54,379 [1] INFO  SharedPluginServer.Program [(null)] - Starting plugin, settings:width:1280,height:720,url:http://test.webrtc.org,memfile:MainSharedMem,port:8885
2019-06-21 11:29:58,439 [1] ERROR SharedPluginServer.Program [(null)] - CefRuntime return 0
2019-06-21 11:29:58,500 [1] ERROR SharedPluginServer.Program [(null)] - CefRuntime return 0
2019-06-21 11:30:00,001 [1] ERROR SharedPluginServer.Program [(null)] - CefRuntime return 0
2019-06-21 11:30:00,077 [1] INFO  SharedPluginServer.Program [(null)] - ===============START================
2019-06-21 11:30:00,122 [1] INFO  SharedPluginServer.Program [(null)] - Starting plugin, settings:width:1280,height:720,url:https://blockly-demo.appspot.com/static/demos/code/index.html,memfile:c24ddb8b-fb9c-4078-9340-706706b935cf,port:8017
2019-06-21 11:30:04,429 [1] INFO  SharedPluginServer.Program [(null)] - ===============START================
2019-06-21 11:30:04,476 [1] INFO  SharedPluginServer.Program [(null)] - Starting plugin, settings:width:1280,height:720,url:http://test.webrtc.org,memfile:MainSharedMem,port:8885
2019-06-21 11:30:06,383 [1] ERROR SharedPluginServer.Program [(null)] - CefRuntime return 0
2019-06-21 11:30:06,442 [1] INFO  SharedPluginServer.Program [(null)] - ===============START================
2019-06-21 11:30:06,487 [1] INFO  SharedPluginServer.Program [(null)] - Starting plugin, settings:width:1280,height:720,url:http://test.webrtc.org,memfile:MainSharedMem,port:8885
2019-06-21 11:30:10,411 [1] ERROR SharedPluginServer.Program [(null)] - CefRuntime return 0
2019-06-21 11:30:10,533 [1] INFO  SharedPluginServer.Program [(null)] - ===============START================
2019-06-21 11:30:10,580 [1] INFO  SharedPluginServer.Program [(null)] - Starting plugin, settings:width:1280,height:720,url:http://test.webrtc.org,memfile:MainSharedMem,port:8885
2019-06-21 11:30:12,532 [1] ERROR SharedPluginServer.Program [(null)] - CefRuntime return 0
2019-06-21 11:30:14,227 [1] INFO  SharedPluginServer.Program [(null)] - ===============START================
2019-06-21 11:30:14,272 [1] INFO  SharedPluginServer.Program [(null)] - Starting plugin, settings:width:1280,height:720,url:https://blockly-demo.appspot.com/static/demos/code/index.html,memfile:c24ddb8b-fb9c-4078-9340-706706b935cf,port:8017
2019-06-21 11:30:16,639 [1] ERROR SharedPluginServer.Program [(null)] - CefRuntime return 0
2019-06-21 11:30:18,238 [1] INFO  SharedPluginServer.Program [(null)] - ===============START================
2019-06-21 11:30:18,284 [1] INFO  SharedPluginServer.Program [(null)] - Starting plugin, settings:width:1280,height:720,url:https://blockly-demo.appspot.com/static/demos/code/index.html,memfile:c24ddb8b-fb9c-4078-9340-706706b935cf,port:8017
2019-06-21 11:30:22,662 [1] INFO  SharedPluginServer.Program [(null)] - ===============START================
2019-06-21 11:30:22,716 [1] INFO  SharedPluginServer.Program [(null)] - Starting plugin, settings:width:1280,height:720,url:http://test.webrtc.org,memfile:MainSharedMem,port:8885
2019-06-21 11:30:24,664 [1] ERROR SharedPluginServer.Program [(null)] - CefRuntime return 0
2019-06-21 11:30:26,445 [1] INFO  SharedPluginServer.Program [(null)] - ===============START================
2019-06-21 11:30:26,532 [1] INFO  SharedPluginServer.Program [(null)] - Starting plugin, settings:width:1280,height:720,url:https://blockly-demo.appspot.com/static/demos/code/index.html,memfile:c24ddb8b-fb9c-4078-9340-706706b935cf,port:8017
2019-06-21 11:30:29,057 [1] ERROR SharedPluginServer.Program [(null)] - CefRuntime return 0
2019-06-21 11:30:30,360 [1] INFO  SharedPluginServer.Program [(null)] - ===============START================
2019-06-21 11:30:30,410 [1] INFO  SharedPluginServer.Program [(null)] - Starting plugin, settings:width:1280,height:720,url:https://blockly-demo.appspot.com/static/demos/code/index.html,memfile:c24ddb8b-fb9c-4078-9340-706706b935cf,port:8017
2019-06-21 11:30:34,857 [1] ERROR SharedPluginServer.Program [(null)] - CefRuntime return 0
2019-06-21 11:30:34,935 [1] ERROR SharedPluginServer.Program [(null)] - CefRuntime return 0
2019-06-21 11:30:36,410 [1] INFO  SharedPluginServer.Program [(null)] - ===============START================
2019-06-21 11:30:36,455 [1] INFO  SharedPluginServer.Program [(null)] - Starting plugin, settings:width:1280,height:720,url:https://blockly-demo.appspot.com/static/demos/code/index.html,memfile:c24ddb8b-fb9c-4078-9340-706706b935cf,port:8017
2019-06-21 11:30:40,737 [1] ERROR SharedPluginServer.Program [(null)] - CefRuntime return 0
2019-06-21 11:30:40,816 [1] ERROR SharedPluginServer.Program [(null)] - CefRuntime return 0
2019-06-21 11:30:40,865 [1] INFO  SharedPluginServer.Program [(null)] - Starting plugin, settings:width:1280,height:720,url:http://test.webrtc.org,memfile:MainSharedMem,port:8885
2019-06-21 11:30:42,739 [1] ERROR SharedPluginServer.Program [(null)] - CefRuntime return 0
2019-06-21 11:30:42,761 [1] INFO  SharedPluginServer.Program [(null)] - ===============START================
2019-06-21 11:30:42,813 [1] INFO  SharedPluginServer.Program [(null)] - Starting plugin, settings:width:1280,height:720,url:http://test.webrtc.org,memfile:MainSharedMem,port:8885
2019-06-21 11:30:46,728 [1] ERROR SharedPluginServer.Program [(null)] - CefRuntime return 0
2019-06-21 11:30:46,820 [1] ERROR SharedPluginServer.Program [(null)] - CefRuntime return 0
2019-06-21 11:30:46,852 [1] INFO  SharedPluginServer.Program [(null)] - ===============START================
2019-06-21 11:30:46,902 [1] INFO  SharedPluginServer.Program [(null)] - Starting plugin, settings:width:1280,height:720,url:http://test.webrtc.org,memfile:MainSharedMem,port:8885
2019-06-21 11:30:48,704 [1] ERROR SharedPluginServer.Program [(null)] - CefRuntime return 0
2019-06-21 11:30:48,813 [1] INFO  SharedPluginServer.Program [(null)] - ===============START================
2019-06-21 11:30:48,857 [1] INFO  SharedPluginServer.Program [(null)] - Starting plugin, settings:width:1280,height:720,url:http://test.webrtc.org,memfile:MainSharedMem,port:8885
2019-06-21 11:30:52,818 [1] ERROR SharedPluginServer.Program [(null)] - CefRuntime return 0
2019-06-21 11:30:52,897 [1] INFO  SharedPluginServer.Program [(null)] - ===============START================
2019-06-21 11:30:52,945 [1] INFO  SharedPluginServer.Program [(null)] - Starting plugin, settings:width:1280,height:720,url:http://test.webrtc.org,memfile:MainSharedMem,port:8885
2019-06-21 11:30:54,783 [1] ERROR SharedPluginServer.Program [(null)] - CefRuntime return 0
2019-06-21 11:30:54,901 [1] INFO  SharedPluginServer.Program [(null)] - ===============START================
2019-06-21 11:30:54,947 [1] INFO  SharedPluginServer.Program [(null)] - Starting plugin, settings:width:1280,height:720,url:http://test.webrtc.org,memfile:MainSharedMem,port:8885
2019-06-21 11:31:05,319 [1] ERROR SharedPluginServer.Program [(null)] - CefRuntime return 0
2019-06-21 11:31:06,711 [1] INFO  SharedPluginServer.Program [(null)] - ===============START================
2019-06-21 11:31:06,761 [1] INFO  SharedPluginServer.Program [(null)] - Starting plugin, settings:width:1280,height:720,url:https://blockly-demo.appspot.com/static/demos/code/index.html,memfile:c24ddb8b-fb9c-4078-9340-706706b935cf,port:8017
2019-06-21 11:31:09,215 [1] ERROR SharedPluginServer.Program [(null)] - CefRuntime return 0
2019-06-21 11:31:10,731 [1] INFO  SharedPluginServer.Program [(null)] - ===============START================
2019-06-21 11:31:10,777 [1] INFO  SharedPluginServer.Program [(null)] - Starting plugin, settings:width:1280,height:720,url:https://blockly-demo.appspot.com/static/demos/code/index.html,memfile:c24ddb8b-fb9c-4078-9340-706706b935cf,port:8017
2019-06-21 11:31:15,185 [1] ERROR SharedPluginServer.Program [(null)] - CefRuntime return 0
2019-06-21 11:31:15,291 [1] ERROR SharedPluginServer.Program [(null)] - CefRuntime return 0
2019-06-21 11:31:16,817 [1] INFO  SharedPluginServer.Program [(null)] - ===============START================
2019-06-21 11:31:16,867 [1] INFO  SharedPluginServer.Program [(null)] - Starting plugin, settings:width:1280,height:720,url:https://blockly-demo.appspot.com/static/demos/code/index.html,memfile:c24ddb8b-fb9c-4078-9340-706706b935cf,port:8017
2019-06-21 11:31:22,846 [1] INFO  SharedPluginServer.Program [(null)] - ===============START================
2019-06-21 11:31:22,892 [1] INFO  SharedPluginServer.Program [(null)] - Starting plugin, settings:width:1280,height:720,url:https://blockly-demo.appspot.com/static/demos/code/index.html,memfile:c24ddb8b-fb9c-4078-9340-706706b935cf,port:8017
2019-06-21 11:31:26,925 [1] INFO  SharedPluginServer.Program [(null)] - Starting plugin, settings:width:1280,height:720,url:https://blockly-demo.appspot.com/static/demos/code/index.html,memfile:c24ddb8b-fb9c-4078-9340-706706b935cf,port:8017
2019-06-21 11:31:31,249 [1] INFO  SharedPluginServer.Program [(null)] - ===============START================
2019-06-21 11:31:31,296 [1] INFO  SharedPluginServer.Program [(null)] - Starting plugin, settings:width:1280,height:720,url:http://test.webrtc.org,memfile:MainSharedMem,port:8885
2019-06-21 11:31:32,974 [1] ERROR SharedPluginServer.Program [(null)] - CefRuntime return 0
2019-06-21 11:31:32,985 [1] INFO  SharedPluginServer.Program [(null)] - Starting plugin, settings:width:1280,height:720,url:https://blockly-demo.appspot.com/static/demos/code/index.html,memfile:c24ddb8b-fb9c-4078-9340-706706b935cf,port:8017
2019-06-21 11:31:36,982 [1] ERROR SharedPluginServer.Program [(null)] - CefRuntime return 0
2019-06-21 11:31:37,023 [1] INFO  SharedPluginServer.Program [(null)] - ===============START================
2019-06-21 11:31:37,084 [1] INFO  SharedPluginServer.Program [(null)] - Starting plugin, settings:width:1280,height:720,url:https://blockly-demo.appspot.com/static/demos/code/index.html,memfile:c24ddb8b-fb9c-4078-9340-706706b935cf,port:8017
2019-06-21 11:31:41,024 [1] INFO  SharedPluginServer.Program [(null)] - ===============START================
2019-06-21 11:31:41,069 [1] INFO  SharedPluginServer.Program [(null)] - Starting plugin, settings:width:1280,height:720,url:https://blockly-demo.appspot.com/static/demos/code/index.html,memfile:c24ddb8b-fb9c-4078-9340-706706b935cf,port:8017
2019-06-21 11:31:45,088 [1] ERROR SharedPluginServer.Program [(null)] - CefRuntime return 0
2019-06-21 11:31:45,159 [1] ERROR SharedPluginServer.Program [(null)] - CefRuntime return 0
2019-06-21 11:31:45,377 [1] INFO  SharedPluginServer.Program [(null)] - ===============START================
2019-06-21 11:31:45,420 [1] INFO  SharedPluginServer.Program [(null)] - Starting plugin, settings:width:1280,height:720,url:http://test.webrtc.org,memfile:MainSharedMem,port:8885
2019-06-21 11:31:49,088 [1] ERROR SharedPluginServer.Program [(null)] - CefRuntime return 0
2019-06-21 11:31:49,111 [1] INFO  SharedPluginServer.Program [(null)] - ===============START================
2019-06-21 11:31:49,169 [1] INFO  SharedPluginServer.Program [(null)] - Starting plugin, settings:width:1280,height:720,url:https://blockly-demo.appspot.com/static/demos/code/index.html,memfile:c24ddb8b-fb9c-4078-9340-706706b935cf,port:8017
2019-06-21 11:31:53,156 [1] INFO  SharedPluginServer.Program [(null)] - ===============START================
2019-06-21 11:31:53,208 [1] INFO  SharedPluginServer.Program [(null)] - Starting plugin, settings:width:1280,height:720,url:https://blockly-demo.appspot.com/static/demos/code/index.html,memfile:c24ddb8b-fb9c-4078-9340-706706b935cf,port:8017
2019-06-21 11:31:57,186 [1] INFO  SharedPluginServer.Program [(null)] - ===============START================
2019-06-21 11:31:57,232 [1] INFO  SharedPluginServer.Program [(null)] - Starting plugin, settings:width:1280,height:720,url:https://blockly-demo.appspot.com/static/demos/code/index.html,memfile:c24ddb8b-fb9c-4078-9340-706706b935cf,port:8017
2019-06-21 11:32:01,189 [1] ERROR SharedPluginServer.Program [(null)] - CefRuntime return 0
2019-06-21 11:32:01,249 [1] INFO  SharedPluginServer.Program [(null)] - ===============START================
2019-06-21 11:32:01,302 [1] INFO  SharedPluginServer.Program [(null)] - Starting plugin, settings:width:1280,height:720,url:https://blockly-demo.appspot.com/static/demos/code/index.html,memfile:c24ddb8b-fb9c-4078-9340-706706b935cf,port:8017
2019-06-21 11:32:05,263 [1] INFO  SharedPluginServer.Program [(null)] - ===============START================
2019-06-21 11:32:05,308 [1] INFO  SharedPluginServer.Program [(null)] - Starting plugin, settings:width:1280,height:720,url:https://blockly-demo.appspot.com/static/demos/code/index.html,memfile:c24ddb8b-fb9c-4078-9340-706706b935cf,port:8017
2019-06-21 11:32:09,376 [1] ERROR SharedPluginServer.Program [(null)] - CefRuntime return 0
2019-06-21 11:32:09,440 [1] ERROR SharedPluginServer.Program [(null)] - CefRuntime return 0
2019-06-21 11:32:09,596 [1] INFO  SharedPluginServer.Program [(null)] - ===============START================
2019-06-21 11:32:09,642 [1] INFO  SharedPluginServer.Program [(null)] - Starting plugin, settings:width:1280,height:720,url:http://test.webrtc.org,memfile:MainSharedMem,port:8885
2019-06-21 11:32:13,611 [1] ERROR SharedPluginServer.Program [(null)] - CefRuntime return 0
2019-06-21 11:32:13,666 [1] INFO  SharedPluginServer.Program [(null)] - ===============START================
2019-06-21 11:32:13,717 [1] INFO  SharedPluginServer.Program [(null)] - Starting plugin, settings:width:1280,height:720,url:http://test.webrtc.org,memfile:MainSharedMem,port:8885
2019-06-21 11:32:15,553 [1] ERROR SharedPluginServer.Program [(null)] - CefRuntime return 0
2019-06-21 11:32:15,650 [1] INFO  SharedPluginServer.Program [(null)] - ===============START================
2019-06-21 11:32:15,695 [1] INFO  SharedPluginServer.Program [(null)] - Starting plugin, settings:width:1280,height:720,url:http://test.webrtc.org,memfile:MainSharedMem,port:8885
2019-06-21 11:32:25,497 [1] ERROR SharedPluginServer.Program [(null)] - CefRuntime return 0
2019-06-21 11:32:25,503 [1] INFO  SharedPluginServer.Program [(null)] - Starting plugin, settings:width:1280,height:720,url:https://blockly-demo.appspot.com/static/demos/code/index.html,memfile:c24ddb8b-fb9c-4078-9340-706706b935cf,port:8017
2019-06-21 11:32:29,858 [1] INFO  SharedPluginServer.Program [(null)] - ===============START================
2019-06-21 11:32:29,924 [1] INFO  SharedPluginServer.Program [(null)] - Starting plugin, settings:width:1280,height:720,url:http://test.webrtc.org,memfile:MainSharedMem,port:8885
2019-06-21 11:32:32,085 [1] ERROR SharedPluginServer.Program [(null)] - CefRuntime return 0
2019-06-21 11:32:33,546 [1] INFO  SharedPluginServer.Program [(null)] - ===============START================
2019-06-21 11:32:33,596 [1] INFO  SharedPluginServer.Program [(null)] - Starting plugin, settings:width:1280,height:720,url:https://blockly-demo.appspot.com/static/demos/code/index.html,memfile:c24ddb8b-fb9c-4078-9340-706706b935cf,port:8017
2019-06-21 11:32:36,038 [1] INFO  SharedPluginServer.Program [(null)] - ===============START================
2019-06-21 11:32:36,094 [1] INFO  SharedPluginServer.Program [(null)] - Starting plugin, settings:width:1280,height:720,url:http://test.webrtc.org,memfile:MainSharedMem,port:8885
2019-06-21 11:32:38,042 [1] ERROR SharedPluginServer.Program [(null)] - CefRuntime return 0
2019-06-21 11:32:39,621 [1] INFO  SharedPluginServer.Program [(null)] - ===============START================
2019-06-21 11:32:39,674 [1] INFO  SharedPluginServer.Program [(null)] - Starting plugin, settings:width:1280,height:720,url:https://blockly-demo.appspot.com/static/demos/code/index.html,memfile:c24ddb8b-fb9c-4078-9340-706706b935cf,port:8017
2019-06-21 11:32:42,044 [1] ERROR SharedPluginServer.Program [(null)] - CefRuntime return 0
2019-06-21 11:32:43,618 [1] INFO  SharedPluginServer.Program [(null)] - ===============START================
2019-06-21 11:32:43,663 [1] INFO  SharedPluginServer.Program [(null)] - Starting plugin, settings:width:1280,height:720,url:https://blockly-demo.appspot.com/static/demos/code/index.html,memfile:c24ddb8b-fb9c-4078-9340-706706b935cf,port:8017
2019-06-21 11:32:47,884 [1] ERROR SharedPluginServer.Program [(null)] - CefRuntime return 0
2019-06-21 11:32:48,024 [1] INFO  SharedPluginServer.Program [(null)] - ===============START================
2019-06-21 11:32:48,070 [1] INFO  SharedPluginServer.Program [(null)] - Starting plugin, settings:width:1280,height:720,url:http://test.webrtc.org,memfile:MainSharedMem,port:8885
2019-06-21 11:32:49,953 [1] ERROR SharedPluginServer.Program [(null)] - CefRuntime return 0
2019-06-21 11:32:50,004 [1] INFO  SharedPluginServer.Program [(null)] - ===============START================
2019-06-21 11:32:50,049 [1] INFO  SharedPluginServer.Program [(null)] - Starting plugin, settings:width:1280,height:720,url:http://test.webrtc.org,memfile:MainSharedMem,port:8885
2019-06-21 11:32:53,981 [1] ERROR SharedPluginServer.Program [(null)] - CefRuntime return 0
2019-06-21 11:32:54,064 [1] ERROR SharedPluginServer.Program [(null)] - CefRuntime return 0
2019-06-21 11:32:54,109 [1] INFO  SharedPluginServer.Program [(null)] - ===============START================
2019-06-21 11:32:54,159 [1] INFO  SharedPluginServer.Program [(null)] - Starting plugin, settings:width:1280,height:720,url:http://test.webrtc.org,memfile:MainSharedMem,port:8885
2019-06-21 11:32:56,009 [1] ERROR SharedPluginServer.Program [(null)] - CefRuntime return 0
2019-06-21 11:32:56,053 [1] INFO  SharedPluginServer.Program [(null)] - ===============START================
2019-06-21 11:32:56,099 [1] INFO  SharedPluginServer.Program [(null)] - Starting plugin, settings:width:1280,height:720,url:http://test.webrtc.org,memfile:MainSharedMem,port:8885
2019-06-21 11:33:06,885 [1] ERROR SharedPluginServer.Program [(null)] - CefRuntime return 0
2019-06-21 11:33:07,856 [1] INFO  SharedPluginServer.Program [(null)] - ===============START================
2019-06-21 11:33:07,903 [1] INFO  SharedPluginServer.Program [(null)] - Starting plugin, settings:width:1280,height:720,url:https://blockly-demo.appspot.com/static/demos/code/index.html,memfile:c24ddb8b-fb9c-4078-9340-706706b935cf,port:8017
2019-06-21 11:33:12,167 [1] ERROR SharedPluginServer.Program [(null)] - CefRuntime return 0
2019-06-21 11:33:12,265 [1] INFO  SharedPluginServer.Program [(null)] - ===============START================
2019-06-21 11:33:12,312 [1] INFO  SharedPluginServer.Program [(null)] - Starting plugin, settings:width:1280,height:720,url:http://test.webrtc.org,memfile:MainSharedMem,port:8885
2019-06-21 11:33:14,116 [1] ERROR SharedPluginServer.Program [(null)] - CefRuntime return 0
2019-06-21 11:33:14,228 [1] INFO  SharedPluginServer.Program [(null)] - ===============START================
2019-06-21 11:33:14,273 [1] INFO  SharedPluginServer.Program [(null)] - Starting plugin, settings:width:1280,height:720,url:http://test.webrtc.org,memfile:MainSharedMem,port:8885
2019-06-21 11:33:18,096 [1] ERROR SharedPluginServer.Program [(null)] - CefRuntime return 0
2019-06-21 11:33:18,112 [1] ERROR SharedPluginServer.Program [(null)] - CefRuntime return 0
2019-06-21 11:33:18,287 [1] INFO  SharedPluginServer.Program [(null)] - ===============START================
2019-06-21 11:33:18,332 [1] INFO  SharedPluginServer.Program [(null)] - Starting plugin, settings:width:1280,height:720,url:http://test.webrtc.org,memfile:MainSharedMem,port:8885
2019-06-21 11:33:27,941 [1] ERROR SharedPluginServer.Program [(null)] - CefRuntime return 0
2019-06-21 11:33:28,071 [1] INFO  SharedPluginServer.Program [(null)] - ===============START================
2019-06-21 11:33:28,118 [1] INFO  SharedPluginServer.Program [(null)] - Starting plugin, settings:width:1280,height:720,url:https://blockly-demo.appspot.com/static/demos/code/index.html,memfile:c24ddb8b-fb9c-4078-9340-706706b935cf,port:8017
2019-06-21 11:33:30,295 [1] ERROR SharedPluginServer.Program [(null)] - CefRuntime return 0
2019-06-21 11:33:30,382 [1] INFO  SharedPluginServer.Program [(null)] - ===============START================
2019-06-21 11:33:30,428 [1] INFO  SharedPluginServer.Program [(null)] - Starting plugin, settings:width:1280,height:720,url:http://test.webrtc.org,memfile:MainSharedMem,port:8885
2019-06-21 11:33:40,067 [1] ERROR SharedPluginServer.Program [(null)] - CefRuntime return 0
2019-06-21 11:33:40,208 [1] INFO  SharedPluginServer.Program [(null)] - ===============START================
2019-06-21 11:33:40,263 [1] INFO  SharedPluginServer.Program [(null)] - Starting plugin, settings:width:1280,height:720,url:https://blockly-demo.appspot.com/static/demos/code/index.html,memfile:c24ddb8b-fb9c-4078-9340-706706b935cf,port:8017
2019-06-21 11:33:44,876 [1] ERROR SharedPluginServer.Program [(null)] - CefRuntime return 0
2019-06-21 11:33:46,250 [1] INFO  SharedPluginServer.Program [(null)] - ===============START================
2019-06-21 11:33:46,300 [1] INFO  SharedPluginServer.Program [(null)] - Starting plugin, settings:width:1280,height:720,url:https://blockly-demo.appspot.com/static/demos/code/index.html,memfile:c24ddb8b-fb9c-4078-9340-706706b935cf,port:8017
2019-06-21 11:33:50,624 [1] ERROR SharedPluginServer.Program [(null)] - CefRuntime return 0
2019-06-21 11:33:50,678 [1] INFO  SharedPluginServer.Program [(null)] - Starting plugin, settings:width:1280,height:720,url:http://test.webrtc.org,memfile:MainSharedMem,port:8885
2019-06-21 11:33:52,533 [1] ERROR SharedPluginServer.Program [(null)] - CefRuntime return 0
2019-06-21 11:33:52,629 [1] INFO  SharedPluginServer.Program [(null)] - ===============START================
2019-06-21 11:33:52,675 [1] INFO  SharedPluginServer.Program [(null)] - Starting plugin, settings:width:1280,height:720,url:http://test.webrtc.org,memfile:MainSharedMem,port:8885
2019-06-21 11:33:56,333 [1] ERROR SharedPluginServer.Program [(null)] - CefRuntime return 0
2019-06-21 11:33:56,347 [1] INFO  SharedPluginServer.Program [(null)] - Starting plugin, settings:width:1280,height:720,url:https://blockly-demo.appspot.com/static/demos/code/index.html,memfile:c24ddb8b-fb9c-4078-9340-706706b935cf,port:8017
2019-06-21 11:34:00,451 [1] ERROR SharedPluginServer.Program [(null)] - CefRuntime return 0
2019-06-21 11:34:00,541 [1] ERROR SharedPluginServer.Program [(null)] - CefRuntime return 0
2019-06-21 11:34:00,672 [1] INFO  SharedPluginServer.Program [(null)] - ===============START================
2019-06-21 11:34:00,715 [1] INFO  SharedPluginServer.Program [(null)] - Starting plugin, settings:width:1280,height:720,url:http://test.webrtc.org,memfile:MainSharedMem,port:8885
2019-06-21 11:34:10,336 [1] ERROR SharedPluginServer.Program [(null)] - CefRuntime return 0
2019-06-21 11:34:10,490 [1] INFO  SharedPluginServer.Program [(null)] - ===============START================
2019-06-21 11:34:10,536 [1] INFO  SharedPluginServer.Program [(null)] - Starting plugin, settings:width:1280,height:720,url:https://blockly-demo.appspot.com/static/demos/code/index.html,memfile:c24ddb8b-fb9c-4078-9340-706706b935cf,port:8017
2019-06-21 11:34:12,837 [1] ERROR SharedPluginServer.Program [(null)] - CefRuntime return 0
2019-06-21 11:34:14,519 [1] INFO  SharedPluginServer.Program [(null)] - ===============START================
2019-06-21 11:34:14,565 [1] INFO  SharedPluginServer.Program [(null)] - Starting plugin, settings:width:1280,height:720,url:https://blockly-demo.appspot.com/static/demos/code/index.html,memfile:c24ddb8b-fb9c-4078-9340-706706b935cf,port:8017
2019-06-21 11:34:16,738 [1] ERROR SharedPluginServer.Program [(null)] - CefRuntime return 0
2019-06-21 11:34:16,837 [1] INFO  SharedPluginServer.Program [(null)] - ===============START================
2019-06-21 11:34:16,881 [1] INFO  SharedPluginServer.Program [(null)] - Starting plugin, settings:width:1280,height:720,url:http://test.webrtc.org,memfile:MainSharedMem,port:8885
2019-06-21 11:34:20,838 [1] ERROR SharedPluginServer.Program [(null)] - CefRuntime return 0
2019-06-21 11:34:20,952 [1] ERROR SharedPluginServer.Program [(null)] - CefRuntime return 0
2019-06-21 11:34:21,008 [1] INFO  SharedPluginServer.Program [(null)] - ===============START================
2019-06-21 11:34:21,055 [1] INFO  SharedPluginServer.Program [(null)] - Starting plugin, settings:width:1280,height:720,url:http://test.webrtc.org,memfile:MainSharedMem,port:8885
2019-06-21 11:34:23,143 [1] ERROR SharedPluginServer.Program [(null)] - CefRuntime return 0
2019-06-21 11:34:24,638 [1] INFO  SharedPluginServer.Program [(null)] - ===============START================
2019-06-21 11:34:24,684 [1] INFO  SharedPluginServer.Program [(null)] - Starting plugin, settings:width:1280,height:720,url:https://blockly-demo.appspot.com/static/demos/code/index.html,memfile:c24ddb8b-fb9c-4078-9340-706706b935cf,port:8017
2019-06-21 11:34:27,031 [1] INFO  SharedPluginServer.Program [(null)] - Starting plugin, settings:width:1280,height:720,url:http://test.webrtc.org,memfile:MainSharedMem,port:8885
2019-06-21 11:34:28,935 [1] ERROR SharedPluginServer.Program [(null)] - CefRuntime return 0
2019-06-21 11:34:28,950 [1] INFO  SharedPluginServer.Program [(null)] - ===============START================
2019-06-21 11:34:29,002 [1] INFO  SharedPluginServer.Program [(null)] - Starting plugin, settings:width:1280,height:720,url:http://test.webrtc.org,memfile:MainSharedMem,port:8885
2019-06-21 11:34:39,150 [1] ERROR SharedPluginServer.Program [(null)] - CefRuntime return 0
2019-06-21 11:34:40,810 [1] INFO  SharedPluginServer.Program [(null)] - ===============START================
2019-06-21 11:34:40,859 [1] INFO  SharedPluginServer.Program [(null)] - Starting plugin, settings:width:1280,height:720,url:https://blockly-demo.appspot.com/static/demos/code/index.html,memfile:c24ddb8b-fb9c-4078-9340-706706b935cf,port:8017
2019-06-21 11:34:43,194 [1] ERROR SharedPluginServer.Program [(null)] - CefRuntime return 0
2019-06-21 11:34:44,803 [1] INFO  SharedPluginServer.Program [(null)] - ===============START================
2019-06-21 11:34:44,851 [1] INFO  SharedPluginServer.Program [(null)] - Starting plugin, settings:width:1280,height:720,url:https://blockly-demo.appspot.com/static/demos/code/index.html,memfile:c24ddb8b-fb9c-4078-9340-706706b935cf,port:8017
2019-06-21 11:34:49,146 [1] INFO  SharedPluginServer.Program [(null)] - ===============START================
2019-06-21 11:34:49,193 [1] INFO  SharedPluginServer.Program [(null)] - Starting plugin, settings:width:1280,height:720,url:http://test.webrtc.org,memfile:MainSharedMem,port:8885
2019-06-21 11:34:53,308 [1] ERROR SharedPluginServer.Program [(null)] - CefRuntime return 0
2019-06-21 11:34:53,339 [1] INFO  SharedPluginServer.Program [(null)] - Starting plugin, settings:width:1280,height:720,url:http://test.webrtc.org,memfile:MainSharedMem,port:8885
2019-06-21 11:34:55,298 [1] ERROR SharedPluginServer.Program [(null)] - CefRuntime return 0
2019-06-21 11:34:56,956 [1] INFO  SharedPluginServer.Program [(null)] - ===============START================
2019-06-21 11:34:57,010 [1] INFO  SharedPluginServer.Program [(null)] - Starting plugin, settings:width:1280,height:720,url:https://blockly-demo.appspot.com/static/demos/code/index.html,memfile:c24ddb8b-fb9c-4078-9340-706706b935cf,port:8017
2019-06-21 11:34:59,422 [1] ERROR SharedPluginServer.Program [(null)] - CefRuntime return 0
2019-06-21 11:35:00,965 [1] INFO  SharedPluginServer.Program [(null)] - ===============START================
2019-06-21 11:35:01,008 [1] INFO  SharedPluginServer.Program [(null)] - Starting plugin, settings:width:1280,height:720,url:https://blockly-demo.appspot.com/static/demos/code/index.html,memfile:c24ddb8b-fb9c-4078-9340-706706b935cf,port:8017
2019-06-21 11:35:05,285 [1] ERROR SharedPluginServer.Program [(null)] - CefRuntime return 0
2019-06-21 11:35:05,318 [1] INFO  SharedPluginServer.Program [(null)] - ===============START================
2019-06-21 11:35:05,366 [1] INFO  SharedPluginServer.Program [(null)] - Starting plugin, settings:width:1280,height:720,url:http://test.webrtc.org,memfile:MainSharedMem,port:8885
2019-06-21 11:35:09,599 [1] ERROR SharedPluginServer.Program [(null)] - CefRuntime return 0
2019-06-21 11:35:09,657 [1] INFO  SharedPluginServer.Program [(null)] - ===============START================
2019-06-21 11:35:09,708 [1] INFO  SharedPluginServer.Program [(null)] - Starting plugin, settings:width:1280,height:720,url:http://test.webrtc.org,memfile:MainSharedMem,port:8885
2019-06-21 11:35:11,604 [1] ERROR SharedPluginServer.Program [(null)] - CefRuntime return 0
2019-06-21 11:35:13,098 [1] INFO  SharedPluginServer.Program [(null)] - ===============START================
2019-06-21 11:35:13,143 [1] INFO  SharedPluginServer.Program [(null)] - Starting plugin, settings:width:1280,height:720,url:https://blockly-demo.appspot.com/static/demos/code/index.html,memfile:c24ddb8b-fb9c-4078-9340-706706b935cf,port:8017
2019-06-21 11:35:15,544 [1] ERROR SharedPluginServer.Program [(null)] - CefRuntime return 0
2019-06-21 11:35:17,107 [1] INFO  SharedPluginServer.Program [(null)] - ===============START================
2019-06-21 11:35:17,151 [1] INFO  SharedPluginServer.Program [(null)] - Starting plugin, settings:width:1280,height:720,url:https://blockly-demo.appspot.com/static/demos/code/index.html,memfile:c24ddb8b-fb9c-4078-9340-706706b935cf,port:8017
2019-06-21 11:35:21,468 [1] INFO  SharedPluginServer.Program [(null)] - ===============START================
2019-06-21 11:35:21,517 [1] INFO  SharedPluginServer.Program [(null)] - Starting plugin, settings:width:1280,height:720,url:http://test.webrtc.org,memfile:MainSharedMem,port:8885
2019-06-21 11:35:23,488 [1] ERROR SharedPluginServer.Program [(null)] - CefRuntime return 0
2019-06-21 11:35:25,199 [1] INFO  SharedPluginServer.Program [(null)] - ===============START================
2019-06-21 11:35:25,246 [1] INFO  SharedPluginServer.Program [(null)] - Starting plugin, settings:width:1280,height:720,url:https://blockly-demo.appspot.com/static/demos/code/index.html,memfile:c24ddb8b-fb9c-4078-9340-706706b935cf,port:8017
2019-06-21 11:35:27,600 [1] ERROR SharedPluginServer.Program [(null)] - CefRuntime return 0
2019-06-21 11:35:29,236 [1] INFO  SharedPluginServer.Program [(null)] - ===============START================
2019-06-21 11:35:29,282 [1] INFO  SharedPluginServer.Program [(null)] - Starting plugin, settings:width:1280,height:720,url:https://blockly-demo.appspot.com/static/demos/code/index.html,memfile:c24ddb8b-fb9c-4078-9340-706706b935cf,port:8017
2019-06-21 11:35:31,589 [1] INFO  SharedPluginServer.Program [(null)] - Starting plugin, settings:width:1280,height:720,url:http://test.webrtc.org,memfile:MainSharedMem,port:8885
2019-06-21 11:35:33,474 [1] ERROR SharedPluginServer.Program [(null)] - CefRuntime return 0
2019-06-21 11:35:33,551 [1] INFO  SharedPluginServer.Program [(null)] - ===============START================
2019-06-21 11:35:33,595 [1] INFO  SharedPluginServer.Program [(null)] - Starting plugin, settings:width:1280,height:720,url:http://test.webrtc.org,memfile:MainSharedMem,port:8885
2019-06-21 11:35:43,817 [1] ERROR SharedPluginServer.Program [(null)] - CefRuntime return 0
2019-06-21 11:35:45,380 [1] INFO  SharedPluginServer.Program [(null)] - ===============START================
2019-06-21 11:35:45,426 [1] INFO  SharedPluginServer.Program [(null)] - Starting plugin, settings:width:1280,height:720,url:https://blockly-demo.appspot.com/static/demos/code/index.html,memfile:c24ddb8b-fb9c-4078-9340-706706b935cf,port:8017
2019-06-21 11:35:47,666 [1] ERROR SharedPluginServer.Program [(null)] - CefRuntime return 0
2019-06-21 11:35:47,713 [1] INFO  SharedPluginServer.Program [(null)] - Starting plugin, settings:width:1280,height:720,url:http://test.webrtc.org,memfile:MainSharedMem,port:8885
2019-06-21 11:35:51,679 [1] ERROR SharedPluginServer.Program [(null)] - CefRuntime return 0
2019-06-21 11:35:51,750 [1] ERROR SharedPluginServer.Program [(null)] - CefRuntime return 0
2019-06-21 11:35:51,781 [1] INFO  SharedPluginServer.Program [(null)] - ===============START================
2019-06-21 11:35:51,833 [1] INFO  SharedPluginServer.Program [(null)] - Starting plugin, settings:width:1280,height:720,url:http://test.webrtc.org,memfile:MainSharedMem,port:8885
2019-06-21 11:35:53,757 [1] ERROR SharedPluginServer.Program [(null)] - CefRuntime return 0
2019-06-21 11:35:55,484 [1] INFO  SharedPluginServer.Program [(null)] - ===============START================
2019-06-21 11:35:55,535 [1] INFO  SharedPluginServer.Program [(null)] - Starting plugin, settings:width:1280,height:720,url:https://blockly-demo.appspot.com/static/demos/code/index.html,memfile:c24ddb8b-fb9c-4078-9340-706706b935cf,port:8017
2019-06-21 11:35:58,099 [1] ERROR SharedPluginServer.Program [(null)] - CefRuntime return 0
2019-06-21 11:35:59,501 [1] INFO  SharedPluginServer.Program [(null)] - ===============START================
2019-06-21 11:35:59,546 [1] INFO  SharedPluginServer.Program [(null)] - Starting plugin, settings:width:1280,height:720,url:https://blockly-demo.appspot.com/static/demos/code/index.html,memfile:c24ddb8b-fb9c-4078-9340-706706b935cf,port:8017
2019-06-21 11:36:03,837 [1] INFO  SharedPluginServer.Program [(null)] - ===============START================
2019-06-21 11:36:03,881 [1] INFO  SharedPluginServer.Program [(null)] - Starting plugin, settings:width:1280,height:720,url:http://test.webrtc.org,memfile:MainSharedMem,port:8885
2019-06-21 11:36:08,011 [1] ERROR SharedPluginServer.Program [(null)] - CefRuntime return 0
2019-06-21 11:36:08,046 [1] ERROR SharedPluginServer.Program [(null)] - CefRuntime return 0
2019-06-21 11:36:09,591 [1] INFO  SharedPluginServer.Program [(null)] - ===============START================
2019-06-21 11:36:09,636 [1] INFO  SharedPluginServer.Program [(null)] - Starting plugin, settings:width:1280,height:720,url:https://blockly-demo.appspot.com/static/demos/code/index.html,memfile:c24ddb8b-fb9c-4078-9340-706706b935cf,port:8017
2019-06-21 11:36:13,843 [1] ERROR SharedPluginServer.Program [(null)] - CefRuntime return 0
2019-06-21 11:36:13,916 [1] ERROR SharedPluginServer.Program [(null)] - CefRuntime return 0
2019-06-21 11:36:13,977 [1] INFO  SharedPluginServer.Program [(null)] - ===============START================
2019-06-21 11:36:14,023 [1] INFO  SharedPluginServer.Program [(null)] - Starting plugin, settings:width:1280,height:720,url:http://test.webrtc.org,memfile:MainSharedMem,port:8885
2019-06-21 11:36:15,879 [1] ERROR SharedPluginServer.Program [(null)] - CefRuntime return 0
2019-06-21 11:36:15,930 [1] INFO  SharedPluginServer.Program [(null)] - ===============START================
2019-06-21 11:36:15,975 [1] INFO  SharedPluginServer.Program [(null)] - Starting plugin, settings:width:1280,height:720,url:http://test.webrtc.org,memfile:MainSharedMem,port:8885
2019-06-21 11:36:25,791 [1] ERROR SharedPluginServer.Program [(null)] - CefRuntime return 0
2019-06-21 11:36:26,026 [1] INFO  SharedPluginServer.Program [(null)] - ===============START================
2019-06-21 11:36:26,072 [1] INFO  SharedPluginServer.Program [(null)] - Starting plugin, settings:width:1280,height:720,url:http://test.webrtc.org,memfile:MainSharedMem,port:8885
2019-06-21 11:36:30,022 [1] ERROR SharedPluginServer.Program [(null)] - CefRuntime return 0
2019-06-21 11:36:30,076 [1] ERROR SharedPluginServer.Program [(null)] - CefRuntime return 0
2019-06-21 11:36:30,105 [1] INFO  SharedPluginServer.Program [(null)] - ===============START================
2019-06-21 11:36:30,156 [1] INFO  SharedPluginServer.Program [(null)] - Starting plugin, settings:width:1280,height:720,url:http://test.webrtc.org,memfile:MainSharedMem,port:8885
2019-06-21 11:36:32,078 [1] ERROR SharedPluginServer.Program [(null)] - CefRuntime return 0
2019-06-21 11:36:32,102 [1] INFO  SharedPluginServer.Program [(null)] - Starting plugin, settings:width:1280,height:720,url:http://test.webrtc.org,memfile:MainSharedMem,port:8885
2019-06-21 11:36:35,896 [1] ERROR SharedPluginServer.Program [(null)] - CefRuntime return 0
2019-06-21 11:36:36,120 [1] INFO  SharedPluginServer.Program [(null)] - ===============START================
2019-06-21 11:36:36,166 [1] INFO  SharedPluginServer.Program [(null)] - Starting plugin, settings:width:1280,height:720,url:http://test.webrtc.org,memfile:MainSharedMem,port:8885
2019-06-21 11:36:46,127 [1] ERROR SharedPluginServer.Program [(null)] - CefRuntime return 0
2019-06-21 11:36:46,269 [1] INFO  SharedPluginServer.Program [(null)] - ===============START================
2019-06-21 11:36:46,318 [1] INFO  SharedPluginServer.Program [(null)] - Starting plugin, settings:width:1280,height:720,url:http://test.webrtc.org,memfile:MainSharedMem,port:8885
2019-06-21 11:36:54,379 [1] ERROR SharedPluginServer.Program [(null)] - CefRuntime return 0
2019-06-21 11:36:56,038 [1] INFO  SharedPluginServer.Program [(null)] - ===============START================
2019-06-21 11:36:56,083 [1] INFO  SharedPluginServer.Program [(null)] - Starting plugin, settings:width:1280,height:720,url:https://blockly-demo.appspot.com/static/demos/code/index.html,memfile:c24ddb8b-fb9c-4078-9340-706706b935cf,port:8017
2019-06-21 11:36:58,322 [1] ERROR SharedPluginServer.Program [(null)] - CefRuntime return 0
2019-06-21 11:36:58,351 [1] INFO  SharedPluginServer.Program [(null)] - ===============START================
2019-06-21 11:36:58,399 [1] INFO  SharedPluginServer.Program [(null)] - Starting plugin, settings:width:1280,height:720,url:http://test.webrtc.org,memfile:MainSharedMem,port:8885
2019-06-21 11:37:02,332 [1] ERROR SharedPluginServer.Program [(null)] - CefRuntime return 0
2019-06-21 11:37:02,420 [1] INFO  SharedPluginServer.Program [(null)] - ===============START================
2019-06-21 11:37:02,469 [1] INFO  SharedPluginServer.Program [(null)] - Starting plugin, settings:width:1280,height:720,url:http://test.webrtc.org,memfile:MainSharedMem,port:8885
2019-06-21 11:37:04,373 [1] ERROR SharedPluginServer.Program [(null)] - CefRuntime return 0
2019-06-21 11:37:04,379 [1] INFO  SharedPluginServer.Program [(null)] - ===============START================
2019-06-21 11:37:04,427 [1] INFO  SharedPluginServer.Program [(null)] - Starting plugin, settings:width:1280,height:720,url:http://test.webrtc.org,memfile:MainSharedMem,port:8885
2019-06-21 11:37:14,221 [1] ERROR SharedPluginServer.Program [(null)] - CefRuntime return 0
2019-06-21 11:37:14,233 [1] INFO  SharedPluginServer.Program [(null)] - Starting plugin, settings:width:1280,height:720,url:https://blockly-demo.appspot.com/static/demos/code/index.html,memfile:c24ddb8b-fb9c-4078-9340-706706b935cf,port:8017
2019-06-21 11:37:16,383 [1] ERROR SharedPluginServer.Program [(null)] - CefRuntime return 0
2019-06-21 11:37:16,531 [1] INFO  SharedPluginServer.Program [(null)] - ===============START================
2019-06-21 11:37:16,577 [1] INFO  SharedPluginServer.Program [(null)] - Starting plugin, settings:width:1280,height:720,url:http://test.webrtc.org,memfile:MainSharedMem,port:8885
2019-06-21 11:37:18,724 [1] ERROR SharedPluginServer.Program [(null)] - CefRuntime return 0
2019-06-21 11:37:20,255 [1] INFO  SharedPluginServer.Program [(null)] - ===============START================
2019-06-21 11:37:20,299 [1] INFO  SharedPluginServer.Program [(null)] - Starting plugin, settings:width:1280,height:720,url:https://blockly-demo.appspot.com/static/demos/code/index.html,memfile:c24ddb8b-fb9c-4078-9340-706706b935cf,port:8017
2019-06-21 11:37:22,567 [1] INFO  SharedPluginServer.Program [(null)] - ===============START================
2019-06-21 11:37:22,613 [1] INFO  SharedPluginServer.Program [(null)] - Starting plugin, settings:width:1280,height:720,url:http://test.webrtc.org,memfile:MainSharedMem,port:8885
2019-06-21 11:37:26,443 [1] ERROR SharedPluginServer.Program [(null)] - CefRuntime return 0
2019-06-21 11:37:26,551 [1] ERROR SharedPluginServer.Program [(null)] - CefRuntime return 0
2019-06-21 11:37:26,626 [1] INFO  SharedPluginServer.Program [(null)] - ===============START================
2019-06-21 11:37:26,671 [1] INFO  SharedPluginServer.Program [(null)] - Starting plugin, settings:width:1280,height:720,url:http://test.webrtc.org,memfile:MainSharedMem,port:8885
2019-06-21 11:37:30,563 [1] ERROR SharedPluginServer.Program [(null)] - CefRuntime return 0
2019-06-21 11:37:30,675 [1] INFO  SharedPluginServer.Program [(null)] - ===============START================
2019-06-21 11:37:30,721 [1] INFO  SharedPluginServer.Program [(null)] - Starting plugin, settings:width:1280,height:720,url:http://test.webrtc.org,memfile:MainSharedMem,port:8885
2019-06-21 11:37:32,761 [1] ERROR SharedPluginServer.Program [(null)] - CefRuntime return 0
2019-06-21 11:37:34,440 [1] INFO  SharedPluginServer.Program [(null)] - ===============START================
2019-06-21 11:37:34,495 [1] INFO  SharedPluginServer.Program [(null)] - Starting plugin, settings:width:1280,height:720,url:https://blockly-demo.appspot.com/static/demos/code/index.html,memfile:c24ddb8b-fb9c-4078-9340-706706b935cf,port:8017
2019-06-21 11:37:37,038 [1] ERROR SharedPluginServer.Program [(null)] - CefRuntime return 0
2019-06-21 11:37:38,426 [1] INFO  SharedPluginServer.Program [(null)] - ===============START================
2019-06-21 11:37:38,471 [1] INFO  SharedPluginServer.Program [(null)] - Starting plugin, settings:width:1280,height:720,url:https://blockly-demo.appspot.com/static/demos/code/index.html,memfile:c24ddb8b-fb9c-4078-9340-706706b935cf,port:8017
2019-06-21 11:37:42,777 [1] INFO  SharedPluginServer.Program [(null)] - ===============START================
2019-06-21 11:37:42,825 [1] INFO  SharedPluginServer.Program [(null)] - Starting plugin, settings:width:1280,height:720,url:http://test.webrtc.org,memfile:MainSharedMem,port:8885
2019-06-21 11:37:44,766 [1] ERROR SharedPluginServer.Program [(null)] - CefRuntime return 0
2019-06-21 11:37:44,775 [1] INFO  SharedPluginServer.Program [(null)] - ===============START================
2019-06-21 11:37:44,822 [1] INFO  SharedPluginServer.Program [(null)] - Starting plugin, settings:width:1280,height:720,url:http://test.webrtc.org,memfile:MainSharedMem,port:8885
2019-06-21 11:37:54,502 [1] ERROR SharedPluginServer.Program [(null)] - CefRuntime return 0
2019-06-21 11:37:54,568 [1] INFO  SharedPluginServer.Program [(null)] - ===============START================
2019-06-21 11:37:54,612 [1] INFO  SharedPluginServer.Program [(null)] - Starting plugin, settings:width:1280,height:720,url:https://blockly-demo.appspot.com/static/demos/code/index.html,memfile:c24ddb8b-fb9c-4078-9340-706706b935cf,port:8017
2019-06-21 11:37:58,855 [1] ERROR SharedPluginServer.Program [(null)] - CefRuntime return 0
2019-06-21 11:37:58,947 [1] INFO  SharedPluginServer.Program [(null)] - ===============START================
2019-06-21 11:37:59,000 [1] INFO  SharedPluginServer.Program [(null)] - Starting plugin, settings:width:1280,height:720,url:http://test.webrtc.org,memfile:MainSharedMem,port:8885
2019-06-21 11:38:00,984 [1] ERROR SharedPluginServer.Program [(null)] - CefRuntime return 0
2019-06-21 11:38:02,665 [1] INFO  SharedPluginServer.Program [(null)] - ===============START================
2019-06-21 11:38:02,710 [1] INFO  SharedPluginServer.Program [(null)] - Starting plugin, settings:width:1280,height:720,url:https://blockly-demo.appspot.com/static/demos/code/index.html,memfile:c24ddb8b-fb9c-4078-9340-706706b935cf,port:8017
2019-06-21 11:38:04,898 [1] ERROR SharedPluginServer.Program [(null)] - CefRuntime return 0
2019-06-21 11:38:05,001 [1] INFO  SharedPluginServer.Program [(null)] - ===============START================
2019-06-21 11:38:05,046 [1] INFO  SharedPluginServer.Program [(null)] - Starting plugin, settings:width:1280,height:720,url:http://test.webrtc.org,memfile:MainSharedMem,port:8885
2019-06-21 11:38:07,101 [1] ERROR SharedPluginServer.Program [(null)] - CefRuntime return 0
2019-06-21 11:38:10,800 [1] ERROR SharedPluginServer.Program [(null)] - CefRuntime return 0
2019-06-21 11:41:49,655 [3] INFO  SharedPluginServer.App [(null)] - ==============SHUTTING DOWN==========
