%YAML 1.1
%TAG !u! tag:unity3d.com,2011:
--- !u!114 &11400000
MonoBehaviour:
  m_ObjectHideFlags: 0
  m_PrefabParentObject: {fileID: 0}
  m_PrefabInternal: {fileID: 0}
  m_GameObject: {fileID: 0}
  m_Enabled: 1
  m_EditorHideFlags: 0
  m_Script: {fileID: 11500000, guid: cb5f88e7471b13f45ada3ae20cb9f09d, type: 3}
  m_Name: New ColoredCubesVolumeData 7
  m_EditorClassIdentifier: 
  basePath: 0
  relativePathToVoxelDatabase: 17881A4E.vdb
  mWritePermissions: 1
